[gd_scene load_steps=3 format=3 uid="uid://cxf6rytepioo8"]

[ext_resource type="Texture2D" uid="uid://dejpynmqkwntj" path="res://Sunny-land-files/Sunny-land-assets-files/PNG/environment/layers/tileset.png" id="1_jjian"]

[sub_resource type="RectangleShape2D" id="RectangleShape2D_xn3jh"]
size = Vector2(16, 6)

[node name="One Way Plateform" type="Node2D"]

[node name="Sprite2D" type="Sprite2D" parent="."]
position = Vector2(8, 4)
texture = ExtResource("1_jjian")
region_enabled = true
region_rect = Rect2(160, 16, 16, 8)

[node name="StaticBody2D" type="StaticBody2D" parent="."]

[node name="CollisionShape2D" type="CollisionShape2D" parent="StaticBody2D"]
position = Vector2(8, 3)
shape = SubResource("RectangleShape2D_xn3jh")
one_way_collision = true
